Projet
…
lasso_wf <- workflow() |>
  add_recipe(lasso_recipe) |>
  add_model(lasso_model)

Sélection du paramètre de régularisation (\(\lambda\)) par validation croisée

On commence par choisir une grille d’hyperparamètres (paramètre de régularisation \(\lambda\) ).

Cette grille a été ajustée afin de pouvoir sélectionner au mieux le paramètre de régularisation, et de visualiser l’impact de sa valeur sur les performances du modèle.

parameters_grid <- grid_regular(penalty(range = c(-7,-1)), levels = 200)
parameters_grid

# A tibble: 200 × 1
       penalty
         <dbl>
 1 0.0000001  
 2 0.000000107
 3 0.000000115
 4 0.000000123
 5 0.000000132
 6 0.000000141
 7 0.000000152
 8 0.000000163
 9 0.000000174
10 0.000000187
# ℹ 190 more rows

On crée les blocs de la validation croisée 5 blocs répétée 5 fois :

data_folds <-vfold_cv(data_train, v=5, repeats=5) 

lasso_cv <- lasso_wf |>
  tune_grid(resamples = data_folds, grid = parameters_grid, metrics = metric_set(yardstick::accuracy))

lasso_cv_metrics <- lasso_cv |>
  collect_metrics()

lasso_cv_metrics

# A tibble: 200 × 7
       penalty .metric  .estimator  mean     n std_err .config               
         <dbl> <chr>    <chr>      <dbl> <int>   <dbl> <chr>                 
 1 0.0000001   accuracy binary     0.747    25  0.0153 Preprocessor1_Model001
 2 0.000000107 accuracy binary     0.747    25  0.0153 Preprocessor1_Model002
 3 0.000000115 accuracy binary     0.747    25  0.0153 Preprocessor1_Model003
 4 0.000000123 accuracy binary     0.747    25  0.0153 Preprocessor1_Model004
 5 0.000000132 accuracy binary     0.747    25  0.0153 Preprocessor1_Model005
 6 0.000000141 accuracy binary     0.747    25  0.0153 Preprocessor1_Model006
 7 0.000000152 accuracy binary     0.747    25  0.0153 Preprocessor1_Model007
 8 0.000000163 accuracy binary     0.747    25  0.0153 Preprocessor1_Model008
 9 0.000000174 accuracy binary     0.747    25  0.0153 Preprocessor1_Model009
10 0.000000187 accuracy binary     0.747    25  0.0153 Preprocessor1_Model010
# ℹ 190 more rows
…
On entraine ensuite l’algorithme de regression LASSO avec le “meilleur” paramètre \(\lambda\) (ajusté par VC) sur le jeu de données d’entrainement, pour construir le prédicteur final :

best_parameter <- lasso_cv |>
  select_best(metric="accuracy")

final_lasso_wf <- lasso_wf|>
  finalize_workflow(best_parameter)

best_lasso_fit <- final_lasso_wf |>
  fit(data_train)

best_lasso_fit |> tidy()

# A tibble: 27 × 3
   term                  estimate penalty
   <chr>                    <dbl>   <dbl>
 1 (Intercept)             0.0916  0.0267
 2 minutes                 0       0.0267
 3 player1_rank_points     0.444   0.0267
 4 player1_age             0.0626  0.0267
 5 player1_aces            0.350   0.0267
 6 player1_double_faults  -0.0819  0.0267
 7 player2_rank_points    -0.501   0.0267
 8 player2_age            -0.0484  0.0267
 9 player2_aces           -0.780   0.0267
10 player2_double_faults   0.378   0.0267
# ℹ 17 more rows

On remarque que l’algorithme de régression LASSO (avec l’hyperparamètre \(\lambda\) ajusté par VC) pousse plusieurs coefficients de régression à \(0\) . Une sélection de variable s’est opérée de façon mécanique.

Evaluation des performances du modèle

On évalue les performances de ce modèle :

predictions <- augment(best_lasso_fit, new_data = data_test)
predictions

# A tibble: 171 × 18
   .pred_class .pred_FALSE .pred_TRUE tourney_level surface round minutes
   <fct>             <dbl>      <dbl> <fct>         <fct>   <fct>   <int>
 1 FALSE             0.621     0.379  A             Hard    F         108
 2 FALSE             0.571     0.429  A             Hard    SF         87
 3 FALSE             0.909     0.0912 A             Hard    QF        140
 4 FALSE             0.830     0.170  A             Hard    QF        156
 5 FALSE             0.882     0.118  A             Hard    R16        69
 6 FALSE             0.631     0.369  A             Hard    R16        65
 7 TRUE              0.379     0.621  A             Hard    R16       158
 8 FALSE             0.608     0.392  A             Hard    R16       143
 9 TRUE              0.414     0.586  A             Hard    R16        59
10 TRUE              0.450     0.550  A             Hard    R32        67
# ℹ 161 more rows
# ℹ 11 more variables: player1_rank_points <int>, player1_age <dbl>,
#   player1_hand <fct>, player1_aces <int>, player1_double_faults <int>,
#   player2_rank_points <int>, player2_age <dbl>, player2_hand <fct>,
#   player2_aces <int>, player2_double_faults <int>, player1_wins <fct>

augment(best_lasso_fit, new_data = data_test) |>
  select(.pred_class, .pred_FALSE, .pred_TRUE, player1_wins)

# A tibble: 171 × 4
   .pred_class .pred_FALSE .pred_TRUE player1_wins
   <fct>             <dbl>      <dbl> <fct>       
 1 FALSE             0.621     0.379  TRUE        
 2 FALSE             0.571     0.429  TRUE        
 3 FALSE             0.909     0.0912 FALSE       
 4 FALSE             0.830     0.170  FALSE       
 5 FALSE             0.882     0.118  FALSE       
 6 FALSE             0.631     0.369  FALSE       
 7 TRUE              0.379     0.621  FALSE       
 8 FALSE             0.608     0.392  FALSE       
 9 TRUE              0.414     0.586  TRUE        
10 TRUE              0.450     0.550  FALSE       
# ℹ 161 more rows
…
prediction <- 
  xgb_best_fit |>
  predict(new_data = data_test)

On peut comparer ces prédictions aux valeurs réelles attendues :

predictions_df <- tibble(
  player1_wins = data_test$player1_wins,  
  xgb_pred = prediction$.pred_class     
)

print(predictions_df)

# A tibble: 171 × 2
   player1_wins xgb_pred
   <fct>        <fct>   
 1 TRUE         FALSE   
 2 TRUE         TRUE    
 3 FALSE        FALSE   
 4 FALSE        FALSE   
 5 FALSE        FALSE   
 6 FALSE        FALSE   
 7 FALSE        FALSE   
 8 FALSE        FALSE   
 9 TRUE         FALSE   
10 FALSE        FALSE   
# ℹ 161 more rows
…
